<?xml version="1.0" encoding="utf-8"?>
<!-- Generator: Adobe Illustrator 16.0.0, SVG Export Plug-In . SVG Version: 6.00 Build 0)  -->
<!DOCTYPE svg PUBLIC "-//W3C//DTD SVG 1.1//EN" "http://www.w3.org/Graphics/SVG/1.1/DTD/svg11.dtd">
<svg version="1.1" id="Ebene_1" xmlns="http://www.w3.org/2000/svg" xmlns:xlink="http://www.w3.org/1999/xlink" x="0px" y="0px"
	 width="128px" height="128px" viewBox="0 0 128 128" enable-background="new 0 0 128 128" xml:space="preserve">
<g id="Hilfslinien">
</g>
<g id="BG_Rahmen">
	<path id="grau_small" display="none" fill="#999999" d="M8,8v112h112V8H8z M112,112H16V16h96V112z"/>
	<path id="Orange_aussen" fill="#FF8800" d="M0,0v128h128V0H0z"/>
	<rect x="8" y="8" fill="#FFFFFF" width="112" height="112"/>
</g>
<g id="Layout">
	<g id="aside-left" display="none">
		<rect x="16" y="16" display="inline" fill="#666666" width="96" height="24"/>
		<rect x="16" y="48" display="inline" fill="#999999" width="24" height="64"/>
		<rect x="48" y="48" display="inline" fill="#999999" width="64" height="64"/>
	</g>
	<g id="aside-right" display="none">
		<rect x="16" y="16" display="inline" fill="#666666" width="96" height="24"/>
		<rect x="88" y="48" display="inline" fill="#999999" width="24" height="64"/>
		<rect x="16" y="48" display="inline" fill="#999999" width="64" height="64"/>
	</g>
	<g id="default">
		<rect x="16" y="16" fill="#666666" width="96" height="24"/>
		<rect x="16" y="48" fill="#999999" width="96" height="64"/>
	</g>
</g>
<g id="Content__x2F__Border" display="none">
	<g id="Slider" display="inline">
		<rect x="36" y="30" fill="#5599FF" width="56" height="49"/>
		<g>
			<path fill="#F2F2F2" d="M98,87H30V69.766l21.963-21.895l18.1,18.097l10.049-10.05L98,73.872V87z"/>
		</g>
		<path fill="#666666" d="M30,24v63h68V24H30z M92,81H36V30h56V81z"/>
		<rect x="20" y="35" fill="#999999" width="10" height="40"/>
		<rect x="98" y="35" fill="#999999" width="10" height="40"/>
		<path fill="#666666" d="M69,100c0-2.753-2.24-5-5-5c-2.764,0-5,2.247-5,5c0,2.764,2.236,5,5,5C66.76,105,69,102.764,69,100z"/>
		<path fill="#666666" d="M50,100c0-2.754-2.236-5-5-5c-2.759,0-5,2.246-5,5c0,2.764,2.241,5,5,5C47.764,105,50,102.764,50,100z"/>
		<path fill="#666666" d="M88,100c0-2.753-2.223-5-4.99-5c-2.753,0-5.01,2.247-5.01,5c0,2.764,2.257,5,5.01,5
			C85.777,105,88,102.764,88,100z"/>
	</g>
	<g id="Tabs" display="inline">
		<rect x="24" y="32" fill="#666666" width="80" height="72"/>
		<rect x="32" y="40" fill="#FFFFFF" width="64" height="56"/>
		<rect x="28" y="24" fill="#666666" width="20" height="8"/>
		<rect x="52" y="22" fill="#999999" width="20" height="8"/>
		<rect x="40" y="48" fill="#B9B9B9" width="48" height="8"/>
		<rect x="40" y="64" fill="#B9B9B9" width="48" height="8"/>
		<rect x="40" y="80" fill="#B9B9B9" width="48" height="8"/>
		<rect x="76" y="22" fill="#999999" width="20" height="8"/>
	</g>
	<g id="Accordion" display="inline">
		<rect x="32" y="24" fill="#666666" width="64" height="80"/>
		<rect x="40" y="32" fill="#F2F2F2" width="48" height="64"/>
		<rect x="48" y="40" fill="#999999" width="32" height="16"/>
		<rect x="48" y="80" fill="#999999" width="32" height="8"/>
		<rect x="48" y="64" fill="#999999" width="32" height="8"/>
		<rect x="24" y="40" fill="#999999" width="80" height="48"/>
		<rect x="32" y="48" fill="#B9B9B9" width="64" height="32"/>
	</g>
</g>
<g id="Content__x2F__Single" display="none">
	<g id="Slider_Kopie" display="inline">
		<rect y="16" fill="#999999" width="128" height="72"/>
		<rect x="8" y="24" fill="#B9B9B9" width="112" height="56"/>
		<path fill="#666666" d="M16,8v88h96V8H16z"/>
		<rect x="24" y="16" fill="#5599FF" width="80" height="64"/>
		<g>
			<path fill="#F2F2F2" d="M104,88H24V67.557l25.96-25.205l21.394,20.833l11.689-11.57L104,72.284V88z"/>
		</g>
		<path fill="#666666" d="M69,112c0-2.753-2.24-5-5-5c-2.764,0-5,2.247-5,5c0,2.764,2.236,5,5,5C66.76,117,69,114.764,69,112z"/>
		<path fill="#666666" d="M50,112c0-2.754-2.236-5-5-5c-2.759,0-5,2.246-5,5c0,2.764,2.241,5,5,5C47.764,117,50,114.764,50,112z"/>
		<path fill="#666666" d="M88,112c0-2.753-2.223-5-4.99-5c-2.753,0-5.01,2.247-5.01,5c0,2.764,2.257,5,5.01,5
			C85.777,117,88,114.764,88,112z"/>
		<polygon display="none" fill="#666666" points="16,60 4,52 16,44 		"/>
		<polygon display="none" fill="#666666" points="112,44 124,52 112,60 		"/>
	</g>
	<g id="Tabs_Kopie" display="inline">
		<rect x="8" y="24" fill="#999999" width="112" height="96"/>
		<rect x="16" y="32" fill="#FFFFFF" width="96" height="80"/>
		<rect x="16" y="12" fill="#999999" width="32" height="12"/>
		<rect x="24" y="64" fill="#B9B9B9" width="80" height="8"/>
		<rect x="24" y="80" fill="#B9B9B9" width="80" height="8"/>
		<rect x="24" y="96" fill="#B9B9B9" width="80" height="8"/>
		<rect x="24" y="40" fill="#B9B9B9" width="80" height="16"/>
		<rect x="52" y="8" fill="#B9B9B9" width="28" height="12"/>
		<rect x="84" y="8" fill="#B9B9B9" width="28" height="12"/>
	</g>
	<g id="Accordion_Kopie" display="inline">
		<rect y="24" fill="#999999" width="128" height="80"/>
		<rect x="8" y="32" fill="#B9B9B9" width="112" height="64"/>
		<rect x="16" y="8" fill="#666666" width="96" height="112"/>
		<rect x="24" y="16" fill="#F2F2F2" width="80" height="96"/>
		<rect x="32" y="24" fill="#999999" width="64" height="16"/>
		<rect x="32" y="48" fill="#999999" width="64" height="8"/>
		<rect x="32" y="64" fill="#999999" width="64" height="8"/>
		<rect x="32" y="80" fill="#999999" width="64" height="8"/>
		<rect x="32" y="96" fill="#999999" width="64" height="8"/>
	</g>
</g>
<g id="Grid" display="none">
</g>
<text transform="matrix(1 0 0 1 46.5 101.5)" fill="#FFFFFF" font-family="'ArialMT'" font-size="60">P</text>
</svg>
