<?xml version="1.0" encoding="UTF-8" standalone="no"?>
<!-- Generator: Adobe Illustrator 19.0.0, SVG Export Plug-In . SVG Version: 6.00 Build 0)  -->

<svg
   xmlns:dc="http://purl.org/dc/elements/1.1/"
   xmlns:cc="http://creativecommons.org/ns#"
   xmlns:rdf="http://www.w3.org/1999/02/22-rdf-syntax-ns#"
   xmlns:svg="http://www.w3.org/2000/svg"
   xmlns="http://www.w3.org/2000/svg"
   xmlns:sodipodi="http://sodipodi.sourceforge.net/DTD/sodipodi-0.dtd"
   xmlns:inkscape="http://www.inkscape.org/namespaces/inkscape"
   version="1.1"
   id="Capa_1"
   x="0px"
   y="0px"
   viewBox="0 0 491.172 491.172"
   style="enable-background:new 0 0 491.172 491.172;"
   xml:space="preserve"
   inkscape:version="0.91 r13725"
   sodipodi:docname="Search.svg"><metadata
     id="metadata81"><rdf:RDF><cc:Work
         rdf:about=""><dc:format>image/svg+xml</dc:format><dc:type
           rdf:resource="http://purl.org/dc/dcmitype/StillImage" /><dc:title /></cc:Work></rdf:RDF></metadata><defs
     id="defs79" /><sodipodi:namedview
     pagecolor="#ffffff"
     bordercolor="#666666"
     borderopacity="1"
     objecttolerance="10"
     gridtolerance="10"
     guidetolerance="10"
     inkscape:pageopacity="0"
     inkscape:pageshadow="2"
     inkscape:window-width="1494"
     inkscape:window-height="875"
     id="namedview77"
     showgrid="false"
     inkscape:zoom="0.48048342"
     inkscape:cx="123.61806"
     inkscape:cy="245.586"
     inkscape:window-x="663"
     inkscape:window-y="86"
     inkscape:window-maximized="0"
     inkscape:current-layer="layer1" /><g
     id="g47" /><g
     id="g49" /><g
     id="g51" /><g
     id="g53" /><g
     id="g55" /><g
     id="g57" /><g
     id="g59" /><g
     id="g61" /><g
     id="g63" /><g
     id="g65" /><g
     id="g67" /><g
     id="g69" /><g
     id="g71" /><g
     id="g73" /><g
     id="g75" /><g
     inkscape:groupmode="layer"
     id="layer2"
     inkscape:label="Layer 2"><rect
       style="fill:#007280;fill-opacity:1"
       id="rect4209"
       width="511.98438"
       height="511.98438"
       x="-8.3249502"
       y="-6.2437129" /></g><g
     inkscape:groupmode="layer"
     id="layer1"
     inkscape:label="Layer 1"><g
       id="g3"
       transform="matrix(0.61440694,0,0,0.58720245,105.89938,127.31139)"
       style="fill:#ffffff"><g
         id="g5"
         style="fill:#ffffff"><g
           id="g7"
           style="fill:#ffffff"><rect
             x="71.700996"
             y="84.387001"
             width="211.26401"
             height="70.751999"
             id="rect9"
             style="fill:#ffffff" /><path
             d="m 491.167,445.094 -37.749,-37.77 0,-406.265 -453.418,0 0,424.901 381.954,0 64.173,64.152 c 0,0 20.73,0.259 33.197,-14.021 12.468,-14.258 11.843,-30.997 11.843,-30.997 z m -460.429,-49.311 0,-353.243 391.898,0 0,334.024 -26.661,-26.618 -12.317,7.464 -18.81,-18.119 C 394.12,298.134 390.625,240.82 353.804,203.977 314.955,165.15 253.694,163.489 212.451,197.937 l -140.75,0 0,27.007 117.561,0 c -8.175,13.762 -12.77,28.883 -14.129,44.35 l -103.432,0 0,26.834 104.252,0 c 2.739,15.768 9.211,30.976 19.133,44.371 l -123.385,0 0,27.007 152.225,0 c 35.807,22.283 81.883,21.01 116.547,-3.753 l 17.623,16.933 -6.32,15.056 -321.038,0.041 0,0 z m 191.355,-60.096 c -31.623,-31.731 -31.623,-82.94 0.065,-114.606 31.58,-31.666 82.897,-31.709 114.627,-0.043 31.666,31.687 31.666,82.961 -0.086,114.649 -31.58,31.601 -82.919,31.644 -114.606,0 z"
             id="path11"
             inkscape:connector-curvature="0"
             style="fill:#ffffff" /></g><g
           id="g13"
           style="fill:#ffffff"><path
             d="m 311.504,84.387 0,70.752 69.544,0 0,-70.752 -69.544,0 z m 34.729,52.568 c -9.858,0 -17.904,-8.003 -17.904,-17.904 0,-9.879 8.046,-17.882 17.904,-17.882 9.901,0 17.882,8.003 17.882,17.882 -0.022,9.902 -7.981,17.904 -17.882,17.904 z"
             id="path15"
             inkscape:connector-curvature="0"
             style="fill:#ffffff" /></g></g><g
         id="g17"
         style="fill:#ffffff" /><g
         id="g19"
         style="fill:#ffffff" /><g
         id="g21"
         style="fill:#ffffff" /><g
         id="g23"
         style="fill:#ffffff" /><g
         id="g25"
         style="fill:#ffffff" /><g
         id="g27"
         style="fill:#ffffff" /><g
         id="g29"
         style="fill:#ffffff" /><g
         id="g31"
         style="fill:#ffffff" /><g
         id="g33"
         style="fill:#ffffff" /><g
         id="g35"
         style="fill:#ffffff" /><g
         id="g37"
         style="fill:#ffffff" /><g
         id="g39"
         style="fill:#ffffff" /><g
         id="g41"
         style="fill:#ffffff" /><g
         id="g43"
         style="fill:#ffffff" /><g
         id="g45"
         style="fill:#ffffff" /></g></g></svg>