<?xml version="1.0" encoding="utf-8"?>
<!-- Generator: Adobe Illustrator 16.0.0, SVG Export Plug-In . SVG Version: 6.00 Build 0)  -->
<!DOCTYPE svg PUBLIC "-//W3C//DTD SVG 1.1//EN" "http://www.w3.org/Graphics/SVG/1.1/DTD/svg11.dtd">
<svg version="1.1" id="Ebene_1" xmlns="http://www.w3.org/2000/svg" xmlns:xlink="http://www.w3.org/1999/xlink" x="0px" y="0px"
	 width="128px" height="128px" viewBox="0.5 128.5 128 128" enable-background="new 0.5 128.5 128 128" xml:space="preserve">
<path id="Orange_aussen" display="none" fill="#FF8800" d="M0,0v128h128V0H0z"/>
<path id="grau_small" fill="#999999" d="M8.5,136.5v112h112v-112H8.5z M112.5,240.5h-96v-96h96V240.5z"/>
<path id="Grau_aussen" fill="#999999" d="M0.5,128.5v128h128v-128H0.5z"/>
<rect x="8.5" y="136.5" fill="#FFFFFF" width="112" height="112"/>
<rect x="16.5" y="148.5" fill="#999999" width="96" height="32"/>
<rect x="80.5" y="188.5" fill="#999999" width="32" height="48"/>
<rect x="16.5" y="188.5" fill="#999999" width="56" height="48"/>
</svg>
