<?xml version="1.0" encoding="utf-8"?>
<!-- Generator: Adobe Illustrator 16.0.0, SVG Export Plug-In . SVG Version: 6.00 Build 0)  -->
<!DOCTYPE svg PUBLIC "-//W3C//DTD SVG 1.1//EN" "http://www.w3.org/Graphics/SVG/1.1/DTD/svg11.dtd">
<svg version="1.1" xmlns="http://www.w3.org/2000/svg" xmlns:xlink="http://www.w3.org/1999/xlink" x="0px" y="0px" width="128px"
	 height="128px" viewBox="0 0 128 128" enable-background="new 0 0 128 128" xml:space="preserve">
<g id="Hilfslinien">
</g>
<g id="BG_Rahmen" display="none">
	<path id="grau_small" display="inline" fill="#999999" d="M8,8v112h112V8H8z M112,112H16V16h96V112z"/>
	<path id="Orange_aussen" fill="#FF8800" d="M0,0v128h128V0H0z"/>
	<path id="Grau_aussen" display="inline" fill="#999999" d="M0,0v128h128V0H0z"/>
	<rect x="8" y="8" display="inline" fill="#FFFFFF" width="112" height="112"/>
</g>
<g id="Layout" display="none">
	<g id="aside-left">
		<rect x="16" y="16" display="inline" fill="#666666" width="96" height="24"/>
		<rect x="16" y="48" display="inline" fill="#999999" width="24" height="64"/>
		<rect x="48" y="48" display="inline" fill="#999999" width="64" height="64"/>
	</g>
	<g id="aside-left-alt">
		<rect x="16" y="16" display="inline" fill="#999999" width="24" height="96"/>
		<rect x="48" y="16" display="inline" fill="#999999" width="64" height="96"/>
	</g>
	<g id="aside-right">
		<rect x="16" y="16" display="inline" fill="#666666" width="96" height="24"/>
		<rect x="88" y="48" display="inline" fill="#999999" width="24" height="64"/>
		<rect x="16" y="48" display="inline" fill="#999999" width="64" height="64"/>
	</g>
	<g id="aside-right-alt">
		<rect x="88" y="16" display="inline" fill="#999999" width="24" height="96"/>
		<rect x="16" y="16" display="inline" fill="#999999" width="64" height="96"/>
	</g>
	<g id="aside-left-right">
		<rect x="16" y="16" display="inline" fill="#666666" width="96" height="24"/>
		<rect x="88" y="48" display="inline" fill="#999999" width="24" height="64"/>
		<rect x="16" y="48" display="inline" fill="#999999" width="24" height="64"/>
		<rect x="48" y="48" display="inline" fill="#999999" width="32" height="64"/>
	</g>
	<g id="aside-left-right-alt">
		<rect x="88" y="16" display="inline" fill="#999999" width="24" height="96"/>
		<rect x="16" y="16" display="inline" fill="#999999" width="24" height="96"/>
		<rect x="48" y="16" display="inline" fill="#999999" width="32" height="96"/>
	</g>
	<g id="default">
		<rect x="16" y="16" display="inline" fill="#666666" width="96" height="24"/>
		<rect x="16" y="48" display="inline" fill="#999999" width="96" height="64"/>
	</g>
	<g id="onepage">
		<rect x="16" y="16" display="inline" fill="#666666" width="96" height="24"/>
		<rect x="16" y="40" display="inline" fill="#999999" width="96" height="72"/>
		<polygon display="inline" fill="#FFFFFF" points="82.666,64 64,82.666 45.333,64 36,64 64,92 92,64 		"/>
	</g>
	<g id="home-alt" display="inline">
		<rect x="16" y="16" fill="#666666" width="96" height="24"/>
		<rect x="16" y="48" fill="#999999" width="24" height="16"/>
		<rect x="88" y="48" fill="#999999" width="24" height="16"/>
		<rect x="48" y="48" fill="#999999" width="32" height="16"/>
		<rect x="16" y="96" fill="#666666" width="96" height="16"/>
		<rect x="16" y="72" fill="#999999" width="32" height="16"/>
		<rect x="80" y="72" fill="#999999" width="32" height="16"/>
		<rect x="56" y="72" fill="#999999" width="16" height="16"/>
	</g>
	<g id="home">
		<rect x="16" y="16" display="inline" fill="#666666" width="96" height="16"/>
		<rect x="16" y="104" display="inline" fill="#666666" width="96" height="8"/>
		<rect x="16" y="40" display="inline" fill="#999999" width="95" height="56"/>
		<rect x="48" y="64" display="inline" fill="#F2F2F2" width="32" height="24"/>
		<polygon display="inline" fill="#F2F2F2" points="43.714,64 63.917,48 84.119,64 		"/>
	</g>
</g>
<g id="Pageteaser">
	<g id="article">
	</g>
	<g id="event-2" display="none">
		<g display="inline">
			<path fill="#999999" d="M107.852,72.001c0.473-2.597,0.72-5.271,0.72-8.001c0-24.577-19.994-44.571-44.571-44.571
				c-24.577,0-44.571,19.995-44.571,44.571c0,24.577,19.995,44.571,44.571,44.571c2.73,0,5.404-0.247,8-0.72v6.956
				c-2.607,0.409-5.279,0.621-8,0.621c-28.358,0-51.429-23.071-51.429-51.429c0-28.358,23.071-51.429,51.429-51.429
				c28.357,0,51.429,23.071,51.429,51.429c0,2.721-0.212,5.393-0.621,8L107.852,72.001z"/>
		</g>
		
			<polyline display="inline" fill="none" stroke="#666666" stroke-width="8" stroke-linecap="round" stroke-miterlimit="10" points="
			68,34 68,66 51.394,82.394 		"/>
		<g display="inline">
			<polygon fill="#666666" points="92,124 92,108 76,108 76,92 92,92 92,76 108,76 108,92 124,92 124,108 108,108 108,124 			"/>
			<path fill="#FFFFFF" d="M104,80v16h16v8h-16v16h-8v-16H80v-8h16V80H104 M112,72h-8h-8h-8v8v8h-8h-8v8v8v8h8h8v8v8h8h8h8v-8v-8h8
				h8v-8v-8v-8h-8h-8v-8V72L112,72z"/>
		</g>
	</g>
	<g id="event-1" display="none">
		<g display="inline">
			<path fill="#999999" d="M107.086,16c2.662,0,4.914,2.166,4.914,4.829v86.343c0,2.662-2.166,4.828-4.828,4.828H12.829
				C10.166,112,8,109.834,8,107.172V20.829C8,18.166,10.166,16,12.829,16H107 M107.172,8H12.829C5.744,8,0,13.744,0,20.829v86.343
				C0,114.257,5.744,120,12.829,120h94.343c7.085,0,12.828-5.743,12.828-12.828V20.829C120,13.744,114.257,8,107.172,8L107.172,8z"
				/>
		</g>
		<rect x="24" display="inline" fill="#999999" width="16" height="8"/>
		<rect x="80" display="inline" fill="#999999" width="16" height="8"/>
		<rect x="88" y="40" display="inline" fill="#B9B9B9" width="16" height="16"/>
		<rect x="64" y="40" display="inline" fill="#B9B9B9" width="16" height="16"/>
		<rect x="40" y="40" display="inline" fill="#B9B9B9" width="16" height="16"/>
		<rect x="88" y="64" display="inline" fill="#B9B9B9" width="16" height="16"/>
		<rect x="64" y="64" display="inline" fill="#B9B9B9" width="16" height="16"/>
		<rect x="40" y="64" display="inline" fill="#B9B9B9" width="16" height="16"/>
		<rect x="16" y="64" display="inline" fill="#B9B9B9" width="16" height="16"/>
		<rect x="64" y="88" display="inline" fill="#B9B9B9" width="16" height="16"/>
		<rect x="40" y="88" display="inline" fill="#B9B9B9" width="16" height="16"/>
		<rect x="16" y="88" display="inline" fill="#B9B9B9" width="16" height="16"/>
		<rect x="8" y="16" display="inline" fill="#999999" width="104" height="16"/>
	</g>
	<g id="product-2" display="none">
		<polygon display="inline" fill="#666666" points="64,16 16,36 16,96 64,116 112,96 112,36 64,16 		"/>
		<polygon display="inline" fill="#666666" points="64,116 16,96 16,36 64,16 112,36 112,96 		"/>
		<g display="inline">
			<polygon fill="#FFFFFF" points="88.998,42.923 99.612,38.5 64,23.659 53.386,28.083 			"/>
			<polygon fill="#FFFFFF" points="42.993,32.414 28.388,38.5 64,53.341 78.608,47.253 			"/>
			<polygon fill="#FFFFFF" points="92,50.333 92,69.672 83,73.84 83,54.083 68,60.333 68,106.674 104,91.671 104,45.333 			"/>
			<polygon fill="#FFFFFF" points="60,60.333 24,45.333 24,91.671 60,106.674 			"/>
		</g>
	</g>
	<g id="product-2_Kopie" display="none">
		<polygon display="inline" fill="#666666" points="64,16 16,36 16,96 64,116 112,96 112,36 64,16 		"/>
		<polygon display="inline" fill="#666666" points="64,116 16,96 16,36 64,16 112,36 112,96 		"/>
		<g display="inline">
			<polygon fill="#FFFFFF" points="88.998,42.923 99.612,38.5 64,23.659 53.386,28.083 			"/>
			<polygon fill="#FFFFFF" points="42.993,32.414 28.388,38.5 64,53.341 78.608,47.253 			"/>
			<polygon fill="#FFFFFF" points="92,50.333 92,69.672 83,73.84 83,54.083 68,60.333 68,106.674 104,91.671 104,45.333 			"/>
			<polygon fill="#FFFFFF" points="60,60.333 24,45.333 24,91.671 60,106.674 			"/>
		</g>
	</g>
	<g id="product-1" display="none">
		<polygon display="inline" fill="#666666" points="24,112 104,112 98,48 30,48 		"/>
		<path display="inline" fill="none" stroke="#666666" stroke-width="8" stroke-miterlimit="10" d="M48,56V40.167
			c0-8.836,7.164-16,16-16c8.837,0,16,7.164,16,16V56"/>
		<circle display="inline" fill="#FFFFFF" cx="48" cy="56" r="4"/>
		<circle display="inline" fill="#FFFFFF" cx="80" cy="56" r="4"/>
	</g>
	<g id="galerie" display="none">
		<path display="inline" fill="#B9B9B9" d="M104,120V56H24v64H104z"/>
		<rect x="32" y="64" display="inline" fill="#E6E6E6" width="64" height="48"/>
		<path display="inline" fill="#808080" d="M112,88V8H32v80H112z"/>
		<rect x="40" y="16" display="inline" fill="#B3B3B3" width="64" height="64"/>
		<g display="inline">
			<path fill="#F2F2F2" d="M40,80h64V58.356L83.433,31.853l-16.98,21.907l-9.539-12.165L40,63.328V80z"/>
		</g>
		<path display="inline" fill="#666666" d="M8,24v80h80V24H8z"/>
		<rect x="16" y="32" display="inline" fill="#5599FF" width="64" height="64"/>
		<g display="inline">
			<path fill="#F2F2F2" d="M80,96H16V74.555l20.73-26.503l17.113,21.908l9.362-12.167L80,79.527V96z"/>
		</g>
	</g>
	<g id="News">
		<polyline fill="#999999" points="8,104 8,8 16,8 16,104 		"/>
		<rect x="24" y="112" fill="#999999" width="72" height="8"/>
		<rect x="16" y="8" fill="#999999" width="80" height="8"/>
		<rect x="88" y="8" fill="#999999" width="8" height="96"/>
		<rect x="96" y="24" fill="#999999" width="16" height="8"/>
		<rect x="104" y="24" fill="#999999" width="8" height="80"/>
		<rect x="24" y="24" fill="#666666" width="56" height="16"/>
		<rect x="56" y="48" fill="#999999" width="24" height="8"/>
		<rect x="56" y="64" fill="#999999" width="24" height="8"/>
		<rect x="56" y="80" fill="#999999" width="24" height="8"/>
		<rect x="24" y="48" fill="#999999" width="24" height="8"/>
		<rect x="24" y="64" fill="#999999" width="24" height="8"/>
		<rect x="24" y="80" fill="#999999" width="24" height="8"/>
		<rect x="56" y="96" fill="#999999" width="24" height="8"/>
		<rect x="24" y="96" fill="#999999" width="24" height="8"/>
		<path fill="#999999" d="M104,104c0,4.418-3.582,8-8,8v8c8.822,0,16-7.178,16-16H104z"/>
		<path fill="#999999" d="M24,112c-4.418,0-8-3.582-8-8H8c0,8.822,7.178,16,16,16V112z"/>
	</g>
	<g id="ext-icon" display="none">
		<rect display="inline" fill="#666666" width="128" height="128"/>
		<rect x="16" y="16" display="inline" fill="#B9B9B9" width="8" height="96"/>
		<rect x="24" y="104" display="inline" fill="#B9B9B9" width="88" height="8"/>
		<rect x="24" y="16" display="inline" fill="#B9B9B9" width="72" height="8"/>
		<rect x="88" y="24" display="inline" fill="#B9B9B9" width="8" height="72"/>
		<rect x="96" y="32" display="inline" fill="#B9B9B9" width="16" height="8"/>
		<rect x="24" y="24" display="inline" fill="#FFFFFF" width="64" height="80"/>
		<rect x="104" y="40" display="inline" fill="#B9B9B9" width="8" height="64"/>
		<rect x="32" y="32" display="inline" fill="#666666" width="48" height="16"/>
		<rect x="64" y="56" display="inline" fill="#999999" width="16" height="8"/>
		<rect x="64" y="72" display="inline" fill="#999999" width="16" height="8"/>
		<rect x="64" y="88" display="inline" fill="#999999" width="16" height="8"/>
		<rect x="32" y="56" display="inline" fill="#999999" width="24" height="8"/>
		<rect x="32" y="72" display="inline" fill="#999999" width="24" height="8"/>
		<rect x="32" y="88" display="inline" fill="#999999" width="24" height="8"/>
		<rect x="96" y="40" display="inline" fill="#FFFFFF" width="8" height="64"/>
		<rect x="88" y="96" display="inline" fill="#FFFFFF" width="8" height="8"/>
	</g>
	<path display="none" fill="none" stroke="#666666" stroke-width="8" stroke-miterlimit="10" d="M18.75,43.125"/>
</g>
<g id="Content__x2F__Single" display="none">
	<g id="Slider_1_">
		<rect y="16" display="inline" fill="#999999" width="128" height="72"/>
		<rect x="8" y="24" display="inline" fill="#B9B9B9" width="112" height="56"/>
		<path display="inline" fill="#666666" d="M16,8v88h96V8H16z"/>
		<rect x="24" y="16" display="inline" fill="#5599FF" width="80" height="64"/>
		<g display="inline">
			<path fill="#F2F2F2" d="M104,88H24V67.557l25.96-25.205l21.393,20.833l11.69-11.57L104,72.284V88z"/>
		</g>
		<path display="inline" fill="#666666" d="M69,112c0-2.753-2.24-5-5-5c-2.764,0-5,2.247-5,5c0,2.764,2.236,5,5,5
			C66.76,117,69,114.764,69,112z"/>
		<path display="inline" fill="#666666" d="M50,112c0-2.754-2.236-5-5-5c-2.759,0-5,2.246-5,5c0,2.764,2.241,5,5,5
			C47.764,117,50,114.764,50,112z"/>
		<path display="inline" fill="#666666" d="M88,112c0-2.753-2.222-5-4.99-5c-2.753,0-5.01,2.247-5.01,5c0,2.764,2.257,5,5.01,5
			C85.778,117,88,114.764,88,112z"/>
		<polygon fill="#666666" points="16,60 4,52 16,44 		"/>
		<polygon fill="#666666" points="112,44 124,52 112,60 		"/>
	</g>
	<g id="Tabs_1_">
		<rect x="8" y="24" display="inline" fill="#999999" width="112" height="96"/>
		<rect x="16" y="32" display="inline" fill="#FFFFFF" width="96" height="80"/>
		<rect x="16" y="12" display="inline" fill="#999999" width="32" height="12"/>
		<rect x="24" y="64" display="inline" fill="#B9B9B9" width="80" height="8"/>
		<rect x="24" y="80" display="inline" fill="#B9B9B9" width="80" height="8"/>
		<rect x="24" y="96" display="inline" fill="#B9B9B9" width="80" height="8"/>
		<rect x="24" y="40" display="inline" fill="#B9B9B9" width="80" height="16"/>
		<rect x="52" y="8" display="inline" fill="#B9B9B9" width="28" height="12"/>
		<rect x="84" y="8" display="inline" fill="#B9B9B9" width="28" height="12"/>
	</g>
	<g id="Accordion_1_">
		<rect y="24" display="inline" fill="#999999" width="128" height="80"/>
		<rect x="8" y="32" display="inline" fill="#B9B9B9" width="112" height="64"/>
		<rect x="16" y="8" display="inline" fill="#666666" width="96" height="112"/>
		<rect x="24" y="16" display="inline" fill="#F2F2F2" width="80" height="96"/>
		<rect x="32" y="24" display="inline" fill="#999999" width="64" height="16"/>
		<rect x="32" y="48" display="inline" fill="#999999" width="64" height="8"/>
		<rect x="32" y="64" display="inline" fill="#999999" width="64" height="8"/>
		<rect x="32" y="80" display="inline" fill="#999999" width="64" height="8"/>
		<rect x="32" y="96" display="inline" fill="#999999" width="64" height="8"/>
	</g>
	<g id="Accordion-alt">
		<rect x="96" y="16" display="inline" fill="#999999" width="16" height="96"/>
		<rect x="96" y="24" display="inline" fill="#B9B9B9" width="8" height="80"/>
		<rect y="8" display="inline" fill="#666666" width="96" height="112"/>
		<rect x="8" y="16" display="inline" fill="#F2F2F2" width="80" height="96"/>
		<rect x="16" y="24" display="inline" fill="#999999" width="64" height="16"/>
		<rect x="16" y="48" display="inline" fill="#999999" width="64" height="8"/>
		<rect x="16" y="64" display="inline" fill="#999999" width="64" height="8"/>
		<rect x="16" y="80" display="inline" fill="#999999" width="64" height="8"/>
		<rect x="16" y="96" display="inline" fill="#999999" width="64" height="8"/>
		<rect x="112" y="24" display="inline" fill="#B3B3B3" width="16" height="80"/>
		<rect x="112" y="32" display="inline" fill="#CCCCCC" width="8" height="64"/>
	</g>
	<g id="contact-1">
		<rect x="24" y="16" display="inline" fill="#666666" width="80" height="96"/>
		<path display="inline" fill="#666666" d="M32,31.167C32,33.284,30.284,35,28.167,35h-8.334C17.716,35,16,33.284,16,31.167v-0.334
			C16,28.716,17.716,27,19.833,27h8.334C30.284,27,32,28.716,32,30.833V31.167z"/>
		<path display="inline" fill="#666666" d="M32,79.167C32,81.283,30.284,83,28.167,83h-8.334C17.716,83,16,81.283,16,79.167v-0.334
			C16,76.717,17.716,75,19.833,75h8.334C30.284,75,32,76.717,32,78.833V79.167z"/>
		<path display="inline" fill="#666666" d="M32,103.167c0,2.116-1.716,3.833-3.833,3.833h-8.334c-2.117,0-3.833-1.717-3.833-3.833
			v-0.334C16,100.717,17.716,99,19.833,99h8.334c2.117,0,3.833,1.717,3.833,3.833V103.167z"/>
		<path display="inline" fill="#666666" d="M32,55.167C32,57.284,30.284,59,28.167,59h-8.334C17.716,59,16,57.284,16,55.167v-0.334
			C16,52.716,17.716,51,19.833,51h8.334C30.284,51,32,52.716,32,54.833V55.167z"/>
		<path display="inline" fill="#FFFFFF" d="M64.237,66.903c-4.771-6.22-6.398-9.94-5.565-13.572
			c6.916-1.712,7.404-5.261,6.185-7.917c-4.895-9.957-6.979-10.392-9.238-11.055c-4.54,1.387-7.798,6.041-9.048,10.651
			c-0.191,4.697,6.336,19.446,11.714,26.458c5.377,7.01,17.93,17.138,22.517,18.17c4.776-0.012,10.116-1.952,12.632-5.978
			c-0.055-2.354,0.065-4.479-8.282-11.787c-2.249-1.867-5.803-2.314-9.249,3.921C72.179,75.659,69.007,73.123,64.237,66.903z"/>
		<rect x="32" y="16" display="inline" fill="#FFFFFF" width="4" height="96"/>
	</g>
	<g id="contact-2">
		<path fill="#FFFFFF" d="M179.244,125.99c-6.762,0-12.819-3.068-16.857-7.882c2.053-0.889,7.176-2.733,10.418-3.68
			c0.254-0.081,0.301-0.092,0.301-1.235c0-1.224-0.139-2.089-0.439-2.723c-0.403-0.866-0.888-2.332-1.061-3.646
			c-0.484-0.564-1.143-1.673-1.57-3.795c-0.369-1.871-0.195-2.551,0.047-3.186c0.023-0.069,0.059-0.139,0.069-0.207
			c0.093-0.428-0.034-2.712-0.357-4.477c-0.22-1.212,0.058-3.785,1.731-5.92c1.05-1.35,3.067-3,6.691-3.23h2.02
			c3.681,0.23,5.7,1.881,6.75,3.23c1.672,2.135,1.949,4.708,1.719,5.92c-0.322,1.765-0.449,4.038-0.357,4.477
			c0.012,0.068,0.047,0.138,0.069,0.195c0.241,0.635,0.427,1.316,0.046,3.186c-0.427,2.122-1.085,3.229-1.568,3.796
			c-0.174,1.314-0.658,2.77-1.063,3.646c-0.381,0.796-0.762,1.742-0.762,2.689c0,1.142,0.047,1.152,0.313,1.233
			c3.08,0.912,8.389,2.746,10.729,3.705C192.074,122.909,186.017,125.99,179.244,125.99z"/>
		<path display="inline" fill="#666666" d="M64,16c-26.516,0-48,21.484-48,48c0,26.514,21.484,48,48,48c26.514,0,48-21.486,48-48
			C112,37.484,90.514,16,64,16z M64,108.009c-13.523,0-25.638-6.138-33.715-15.764c4.105-1.779,14.352-5.469,20.835-7.36
			c0.508-0.161,0.602-0.185,0.602-2.471c0-2.448-0.277-4.178-0.879-5.445c-0.806-1.732-1.775-4.664-2.121-7.293
			c-0.968-1.129-2.285-3.346-3.14-7.59c-0.738-3.742-0.391-5.102,0.093-6.371c0.047-0.139,0.117-0.277,0.139-0.415
			c0.186-0.855-0.069-5.423-0.715-8.953c-0.439-2.423,0.115-7.57,3.463-11.84c2.1-2.699,6.135-6,13.383-6.46h4.04
			c7.36,0.46,11.399,3.762,13.5,6.46c3.343,4.27,3.897,9.417,3.437,11.84c-0.646,3.529-0.898,8.077-0.716,8.953
			c0.024,0.137,0.095,0.275,0.14,0.391c0.482,1.27,0.854,2.633,0.091,6.371c-0.853,4.244-2.168,6.459-3.136,7.592
			c-0.347,2.629-1.315,5.539-2.125,7.291c-0.762,1.592-1.524,3.484-1.524,5.379c0,2.284,0.095,2.305,0.625,2.467
			c6.16,1.824,16.778,5.492,21.46,7.409C89.66,101.846,77.545,108.009,64,108.009z"/>
		<path fill="#FFFFFF" d="M179.249-9.928c9.885,0,14.856,1.227,17.852,4.847c-3.595,8.234-0.419,11.446,3.175,12.264
			c13.719,2.745,15.755,0.993,18.151-0.759c2.097-5.606-0.06-12.439-3.714-17.228c-4.553-3.796-24.321-8.585-35.464-8.585
			s-30.911,4.789-35.464,8.585c-3.655,4.789-5.811,11.622-3.714,17.228c2.396,1.752,4.433,3.504,18.15,0.759
			c3.595-0.818,6.77-4.03,3.176-12.264C164.392-8.702,169.364-9.928,179.249-9.928z"/>
	</g>
	<g id="contact-3">
		<path fill="#FFFFFF" d="M179.244,125.99c-6.762,0-12.819-3.068-16.857-7.882c2.053-0.889,7.176-2.733,10.418-3.68
			c0.254-0.081,0.301-0.092,0.301-1.235c0-1.224-0.139-2.089-0.439-2.723c-0.403-0.866-0.888-2.332-1.061-3.646
			c-0.484-0.564-1.143-1.673-1.57-3.795c-0.369-1.871-0.195-2.551,0.047-3.186c0.023-0.069,0.059-0.139,0.069-0.207
			c0.093-0.428-0.034-2.712-0.357-4.477c-0.22-1.212,0.058-3.785,1.731-5.92c1.05-1.35,3.067-3,6.691-3.23h2.02
			c3.681,0.23,5.7,1.881,6.75,3.23c1.672,2.135,1.949,4.708,1.719,5.92c-0.322,1.765-0.449,4.038-0.357,4.477
			c0.012,0.068,0.047,0.138,0.069,0.195c0.241,0.635,0.427,1.316,0.046,3.186c-0.427,2.122-1.085,3.229-1.568,3.796
			c-0.174,1.314-0.658,2.77-1.063,3.646c-0.381,0.796-0.762,1.742-0.762,2.689c0,1.142,0.047,1.152,0.313,1.233
			c3.08,0.912,8.389,2.746,10.729,3.705C192.074,122.909,186.017,125.99,179.244,125.99z"/>
		<path display="inline" fill="#666666" d="M16,112c0,0-1.167-12.167,14.285-19.755c4.105-1.779,14.352-5.469,20.835-7.36
			c0.508-0.161,0.602-0.185,0.602-2.471c0-2.448-0.277-4.178-0.879-5.445c-0.806-1.732-1.775-4.664-2.121-7.293
			c-0.968-1.129-2.285-3.346-3.14-7.59c-0.738-3.742-0.391-5.102,0.093-6.371c0.047-0.139,0.117-0.277,0.139-0.415
			c0.186-0.855-0.069-5.423-0.715-8.953c-0.439-2.423,0.115-7.57,3.463-11.84c2.1-2.699,6.135-6,13.383-6.46h4.04
			c7.36,0.46,11.399,3.762,13.5,6.46c3.343,4.27,3.897,9.417,3.437,11.84c-0.646,3.529-0.898,8.077-0.716,8.953
			c0.024,0.137,0.095,0.275,0.14,0.391c0.482,1.27,0.854,2.633,0.091,6.371c-0.853,4.244-2.168,6.459-3.136,7.592
			c-0.347,2.629-1.315,5.539-2.125,7.291c-0.762,1.592-1.524,3.484-1.524,5.379c0,2.284,0.095,2.305,0.625,2.467
			c6.16,1.824,16.778,5.492,21.46,7.409C112,99.333,112,112,112,112H16z"/>
		<path fill="#FFFFFF" d="M179.249-9.928c9.885,0,14.856,1.227,17.852,4.847c-3.595,8.234-0.419,11.446,3.175,12.264
			c13.719,2.745,15.755,0.993,18.151-0.759c2.097-5.606-0.06-12.439-3.714-17.228c-4.553-3.796-24.321-8.585-35.464-8.585
			s-30.911,4.789-35.464,8.585c-3.655,4.789-5.811,11.622-3.714,17.228c2.396,1.752,4.433,3.504,18.15,0.759
			c3.595-0.818,6.77-4.03,3.176-12.264C164.392-8.702,169.364-9.928,179.249-9.928z"/>
		<rect x="96" y="16" display="inline" fill="#666666" width="8" height="24"/>
		<rect x="88" y="24" display="inline" fill="#666666" width="24" height="8"/>
	</g>
</g>
<g id="Grid" display="none">
	<g id="Rahmen">
		<path id="Grau_aussen_1_" display="inline" fill="#B9B9B9" d="M0,0v128h128V0H0z"/>
		<rect x="8" y="8" display="inline" fill="#FFFFFF" width="112" height="112"/>
	</g>
	<g id="_x34_cols" display="inline">
		<rect x="15" y="32" fill="#999999" width="20" height="64"/>
		<rect x="41" y="32" fill="#999999" width="20" height="64"/>
		<rect x="67" y="32" fill="#999999" width="20" height="64"/>
		<rect x="93" y="32" fill="#999999" width="20" height="64"/>
	</g>
	<g id="_x33_cols">
		<rect x="16" y="32" display="inline" fill="#999999" width="28" height="64"/>
		<rect x="50" y="32" display="inline" fill="#999999" width="28" height="64"/>
		<rect x="84" y="32" display="inline" fill="#999999" width="28" height="64"/>
	</g>
	<g id="_x32_cols">
		<rect x="16" y="32" display="inline" fill="#999999" width="45" height="64"/>
		<rect x="67" y="32" display="inline" fill="#999999" width="45" height="64"/>
	</g>
	<g id="_x31_cols_2_">
		<rect x="16" y="32" display="inline" fill="#999999" width="96" height="64"/>
	</g>
</g>
</svg>
