<?xml version="1.0" encoding="utf-8"?>
<!-- Generator: Adobe Illustrator 16.0.0, SVG Export Plug-In . SVG Version: 6.00 Build 0)  -->
<!DOCTYPE svg PUBLIC "-//W3C//DTD SVG 1.1//EN" "http://www.w3.org/Graphics/SVG/1.1/DTD/svg11.dtd">
<svg version="1.1" id="Ebene_1" xmlns="http://www.w3.org/2000/svg" xmlns:xlink="http://www.w3.org/1999/xlink" x="0px" y="0px"
	 width="128px" height="128px" viewBox="0 0 128 128" enable-background="new 0 0 128 128" xml:space="preserve">
<path id="Orange_aussen" display="none" fill="#FF8800" d="M0,0v128h128V0H0z"/>
<path id="grau_small" fill="#999999" d="M8,8v112h112V8H8z M112,112H16V16h96V112z"/>
<path id="Grau_aussen" fill="#999999" d="M0,0v128h128V0H0z"/>
<rect x="8" y="8" fill="#FFFFFF" width="112" height="112"/>
<circle fill="#3FA9F5" cx="24" cy="24" r="8"/>
<rect x="48" y="16" fill="#666666" width="64" height="8"/>
<rect x="48" y="32" fill="#666666" width="64" height="8"/>
<circle fill="#3FA9F5" cx="24" cy="60" r="8"/>
<rect x="48" y="52" fill="#666666" width="64" height="8"/>
<rect x="48" y="68" fill="#666666" width="64" height="8"/>
<circle fill="#3FA9F5" cx="24" cy="96" r="8"/>
<rect x="48" y="88" fill="#666666" width="64" height="8"/>
<rect x="48" y="104" fill="#666666" width="64" height="8"/>
</svg>
