<?xml version="1.0" encoding="utf-8"?>
<!-- Generator: Adobe Illustrator 16.0.0, SVG Export Plug-In . SVG Version: 6.00 Build 0)  -->
<!DOCTYPE svg PUBLIC "-//W3C//DTD SVG 1.1//EN" "http://www.w3.org/Graphics/SVG/1.1/DTD/svg11.dtd">
<svg version="1.1" id="Ebene_1" xmlns="http://www.w3.org/2000/svg" xmlns:xlink="http://www.w3.org/1999/xlink" x="0px" y="0px"
	 width="128px" height="128px" viewBox="0.5 128.5 128 128" enable-background="new 0.5 128.5 128 128" xml:space="preserve">
<path id="Orange_aussen" display="none" fill="#FF8800" d="M0,0v128h128V0H0z"/>
<path id="Grau_aussen" fill="#999999" d="M0.5,128.5v128h128v-128H0.5z"/>
<rect x="8.5" y="136.5" fill="#FFFFFF" width="112" height="112"/>
<g>
	<path fill="#666666" d="M13.5,141.5v48h48v-48H13.5z"/>
	<rect x="17.5" y="145.5" fill="#5599FF" width="40" height="40"/>
	<g>
		<path fill="#F2F2F2" d="M57.5,185.5h-40v-12.244l13.007-15.647l10.661,12.935l5.877-7.184L57.5,176.191V185.5z"/>
	</g>
</g>
<g>
	<path fill="#666666" d="M67.5,141.5v48h48v-48H67.5z"/>
	<rect x="71.5" y="145.5" fill="#5599FF" width="40" height="40"/>
	<g>
		<path fill="#F2F2F2" d="M111.5,185.5h-40v-12.244l13.007-15.647l10.661,12.935l5.877-7.184l10.455,12.832V185.5z"/>
	</g>
</g>
<g>
	<path fill="#666666" d="M13.5,195.5v48h48v-48H13.5z"/>
	<rect x="17.5" y="199.5" fill="#5599FF" width="40" height="40"/>
	<g>
		<path fill="#F2F2F2" d="M57.5,239.5h-40v-12.244l13.007-15.647l10.661,12.935l5.877-7.184L57.5,230.191V239.5z"/>
	</g>
</g>
<g>
	<path fill="#666666" d="M67.5,195.5v48h48v-48H67.5z"/>
	<rect x="71.5" y="199.5" fill="#5599FF" width="40" height="40"/>
	<g>
		<path fill="#F2F2F2" d="M111.5,239.5h-40v-12.244l13.007-15.647l10.661,12.935l5.877-7.184l10.455,12.832V239.5z"/>
	</g>
</g>
</svg>
